World Record Swimming Times: A Tutorial On Data Analysis
…
#Add gender column to each data frame
mensData <- mensData %>%
  mutate(gender="Men's")
womensData <- womensData %>%
  mutate(gender="Women's")

#Combine two data frames
data <- rbind(mensData,womensData)

data

## # A tibble: 116 x 10
##    index time   placeholder1 swimmer   country  date   meet    location   
##    <chr> <chr>  <chr>        <chr>     <chr>    <chr>  <chr>   <chr>      
##  1 1     1:05.8 ""           Halmay,  Hungary  00000        Austria, V
##  2 2     1:05.6 ""           Daniels, United  00000 Olympi United Kin
##  3 3     1:02.8 (tt)         Daniels, United  00000 Specia United Sta
##  4 4     1:02.4 ""           Bretting Germany  00000        Belgium, B
##  5 5     1:01.6 ""           Kahanamo United  00000 German Germany, H
##  6 6     1:01.4 ""           Kahanamo United  00000 Intern United Sta
##  7 7     1:00.4 ""           Kahanamo United  00000 Olympi Belgium, A
##  8 8     58.6   ""           Weissmul United  00000        United Sta
##  9 9     57.4   ""           Weissmul United  00000        United Sta
## 10 10    56.8   ""           Fick, Pe United  00000 Yale U United Sta
## # ... with 106 more rows, and 2 more variables: placeholder2 <chr>,
## #   gender <chr>

If youve made it this far, you have taken the first big step of data analysis - getting the data! Now that we have this data, we want to get rid of what we dont need. We can use the code below to drop the index, placeholder1, placeholder2, meet, and location columns from our dataset.

Code to remove the data we dont need, along with a preview of the dataframe

#Drop unnecessary columns
drops <- c("index","placeholder1","placeholder2","meet","location")
data <- data[ , !(names(data) %in% drops)]
data

## # A tibble: 116 x 5
##    time   swimmer                               country       date  gender
##    <chr>  <chr>                                 <chr>         <chr> <chr> 
##  1 1:05.8 Halmay, ZoltnZoltn Halmay           Hungary       0000 Men's 
##  2 1:05.6 Daniels, CharlesCharles Daniels       United States 0000 Men's 
##  3 1:02.8 Daniels, CharlesCharles Daniels       United States 0000 Men's 
##  4 1:02.4 Bretting, KurtKurt Bretting           Germany       0000 Men's 
##  5 1:01.6 Kahanamoku, DukeDuke Kahanamoku       United States 0000 Men's 
##  6 1:01.4 Kahanamoku, DukeDuke Kahanamoku       United States 0000 Men's 
##  7 1:00.4 Kahanamoku, DukeDuke Kahanamoku       United States 0000 Men's 
##  8 58.6   Weissmuller, JohnnyJohnny Weissmuller United States 0000 Men's 
##  9 57.4   Weissmuller, JohnnyJohnny Weissmuller United States 0000 Men's 
## 10 56.8   Fick, PeterPeter Fick                 United States 0000 Men's 
## # ... with 106 more rows
…
#Convert date to proper format
data <- data %>%
  mutate(date = gsub('\\d*-\\d*-\\d*-0{4}','',date)) %>%
  mutate(date = as.Date(date, "%d %b %Y"))

#Convert name to proper format
data <- data %>%
  mutate(swimmer = gsub('[^,]*, [A-Z][^A-Z]*','',swimmer))

data

## # A tibble: 116 x 5
##     time swimmer            country       date       gender
##    <dbl> <chr>              <chr>         <date>     <chr> 
##  1  65.8 Zoltn Halmay      Hungary       1905-12-03 Men's 
##  2  65.6 Charles Daniels    United States 1908-07-20 Men's 
##  3  62.8 Charles Daniels    United States 1910-04-15 Men's 
##  4  62.4 Kurt Bretting      Germany       1912-04-06 Men's 
##  5  61.6 Duke Kahanamoku    United States 1912-07-20 Men's 
##  6  61.4 Duke Kahanamoku    United States 1918-08-09 Men's 
##  7  60.4 Duke Kahanamoku    United States 1920-08-24 Men's 
##  8  58.6 Johnny Weissmuller United States 1922-07-19 Men's 
##  9  57.4 Johnny Weissmuller United States 1924-02-17 Men's 
## 10  56.8 Peter Fick         United States 1934-03-02 Men's 
## # ... with 106 more rows
…
